<?xml version="1.0"?>
<!-- Created by MetaPost 1.9991 on 2018.02.01:0935 -->
<svg version="1.1" xmlns="http://www.w3.org/2000/svg" xmlns:xlink="http://www.w3.org/1999/xlink" width="104.981339" height="106.420364" viewBox="0 0 104.981339 106.420364">
<!-- Original BoundingBox: -2.490677 -3.210190 102.490662 103.210175 -->
  <path d="M2.000000 103.000000L102.000000 3.000000L102.000000 3.000000L2.000000 103.000000Z" style="fill: rgb(0.000000%,0.000000%,0.000000%);stroke: none;"></path>
  <g transform="translate(-0.490677 106.210190)" style="fill: rgb(0.000000%,0.000000%,0.000000%);">
    <text font-size="9.962646">1</text>
  </g>
  <path d="M2.000000 103.000000l0 0" style="stroke:rgb(0.000000%,0.000000%,0.000000%); stroke-width: 3.000000;stroke-linecap: round;stroke-linejoin: round;stroke-miterlimit: 10.000000;fill: none;"></path>
  <g transform="translate(99.509323 6.210190)" style="fill: rgb(0.000000%,0.000000%,0.000000%);">
    <text font-size="9.962646">2</text>
  </g>
  <path d="M102.000000 3.000000l0 0" style="stroke:rgb(0.000000%,0.000000%,0.000000%); stroke-width: 3.000000;stroke-linecap: round;stroke-linejoin: round;stroke-miterlimit: 10.000000;fill: none;"></path>
</svg>
