<?xml version="1.0"?>
<!-- Created by MetaPost 1.9991 on 2018.02.01:1517 -->
<svg version="1.1" xmlns="http://www.w3.org/2000/svg" xmlns:xlink="http://www.w3.org/1999/xlink" width="440.593674" height="507.055984" viewBox="0 0 440.593674 507.055984">
<!-- Original BoundingBox: 89.212418 -109.212418 440.593674 397.843567 -->
  <path d="M109.212418 89.362747L89.212418 89.362747L89.212418 109.362747L138.818634 506.212418L158.818634 506.212418L158.818634 486.212418Z" style="fill: rgb(0.000000%,0.000000%,100.000000%);stroke: none;"></path>
  <path d="M148.818634 496.212418L396.849670 377.157822" style="stroke:rgb(0.000000%,0.000000%,100.000000%); stroke-width: 2.000000;stroke-linecap: round;stroke-linejoin: bevel;stroke-miterlimit: 10.000000;fill: none;"></path>
  <path d="M148.818634 496.212418L396.849670 357.315643" style="stroke:rgb(0.000000%,0.000000%,100.000000%); stroke-width: 2.000000;stroke-linecap: round;stroke-linejoin: bevel;stroke-miterlimit: 10.000000;fill: none;"></path>
  <path d="M148.818634 496.212418L396.849670 337.473465" style="stroke:rgb(0.000000%,0.000000%,100.000000%); stroke-width: 2.000000;stroke-linecap: round;stroke-linejoin: bevel;stroke-miterlimit: 10.000000;fill: none;"></path>
  <path d="M148.818634 496.212418L396.849670 317.631287" style="stroke:rgb(0.000000%,0.000000%,100.000000%); stroke-width: 2.000000;stroke-linecap: round;stroke-linejoin: bevel;stroke-miterlimit: 10.000000;fill: none;"></path>
  <path d="M148.818634 496.212418L396.849670 297.789108" style="stroke:rgb(0.000000%,0.000000%,100.000000%); stroke-width: 2.000000;stroke-linecap: round;stroke-linejoin: bevel;stroke-miterlimit: 10.000000;fill: none;"></path>
  <path d="M148.818634 496.212418L396.849670 277.946930" style="stroke:rgb(0.000000%,0.000000%,100.000000%); stroke-width: 2.000000;stroke-linecap: round;stroke-linejoin: bevel;stroke-miterlimit: 10.000000;fill: none;"></path>
  <path d="M148.818634 496.212418L396.849670 258.104752" style="stroke:rgb(0.000000%,0.000000%,100.000000%); stroke-width: 2.000000;stroke-linecap: round;stroke-linejoin: bevel;stroke-miterlimit: 10.000000;fill: none;"></path>
  <path d="M148.818634 496.212418L396.849670 238.262573" style="stroke:rgb(0.000000%,0.000000%,100.000000%); stroke-width: 2.000000;stroke-linecap: round;stroke-linejoin: bevel;stroke-miterlimit: 10.000000;fill: none;"></path>
  <path d="M148.818634 496.212418L396.849670 218.420395" style="stroke:rgb(0.000000%,0.000000%,100.000000%); stroke-width: 2.000000;stroke-linecap: round;stroke-linejoin: bevel;stroke-miterlimit: 10.000000;fill: none;"></path>
  <path d="M148.818634 496.212418L396.849670 198.578217" style="stroke:rgb(0.000000%,0.000000%,100.000000%); stroke-width: 2.000000;stroke-linecap: round;stroke-linejoin: bevel;stroke-miterlimit: 10.000000;fill: none;"></path>
  <path d="M148.818634 496.212418L396.849670 178.736038" style="stroke:rgb(0.000000%,0.000000%,100.000000%); stroke-width: 2.000000;stroke-linecap: round;stroke-linejoin: bevel;stroke-miterlimit: 10.000000;fill: none;"></path>
  <path d="M148.818634 496.212418L396.849670 158.893860" style="stroke:rgb(0.000000%,0.000000%,100.000000%); stroke-width: 2.000000;stroke-linecap: round;stroke-linejoin: bevel;stroke-miterlimit: 10.000000;fill: none;"></path>
  <path d="M148.818634 496.212418L396.849670 139.051682" style="stroke:rgb(0.000000%,0.000000%,100.000000%); stroke-width: 2.000000;stroke-linecap: round;stroke-linejoin: bevel;stroke-miterlimit: 10.000000;fill: none;"></path>
  <path d="M148.818634 496.212418L396.849670 119.209503" style="stroke:rgb(0.000000%,0.000000%,100.000000%); stroke-width: 2.000000;stroke-linecap: round;stroke-linejoin: bevel;stroke-miterlimit: 10.000000;fill: none;"></path>
  <path d="M148.818634 496.212418L396.849670 99.367325" style="stroke:rgb(0.000000%,0.000000%,100.000000%); stroke-width: 2.000000;stroke-linecap: round;stroke-linejoin: bevel;stroke-miterlimit: 10.000000;fill: none;"></path>
  <path d="M148.818634 496.212418L396.849670 79.525146" style="stroke:rgb(0.000000%,0.000000%,100.000000%); stroke-width: 2.000000;stroke-linecap: round;stroke-linejoin: bevel;stroke-miterlimit: 10.000000;fill: none;"></path>
  <path d="M148.818634 496.212418L396.849670 59.682968" style="stroke:rgb(0.000000%,0.000000%,100.000000%); stroke-width: 2.000000;stroke-linecap: round;stroke-linejoin: bevel;stroke-miterlimit: 10.000000;fill: none;"></path>
  <path d="M148.818634 496.212418L396.849670 39.840790" style="stroke:rgb(0.000000%,0.000000%,100.000000%); stroke-width: 2.000000;stroke-linecap: round;stroke-linejoin: bevel;stroke-miterlimit: 10.000000;fill: none;"></path>
  <path d="M148.818634 496.212418L396.849670 19.998611" style="stroke:rgb(0.000000%,0.000000%,100.000000%); stroke-width: 2.000000;stroke-linecap: round;stroke-linejoin: bevel;stroke-miterlimit: 10.000000;fill: none;"></path>
  <path d="M148.818634 496.212418L396.849670 0.156433" style="stroke:rgb(0.000000%,0.000000%,100.000000%); stroke-width: 2.000000;stroke-linecap: round;stroke-linejoin: bevel;stroke-miterlimit: 10.000000;fill: none;"></path>
  <path d="M148.818634 496.212418C196.926010 485.260254,243.554779 468.607147,287.716171 446.606201C326.416382 427.325989,362.993301 404.049820,396.849670 377.157822" style="stroke:rgb(100.000000%,0.000000%,0.000000%); stroke-width: 2.000000;stroke-linecap: round;stroke-linejoin: bevel;stroke-miterlimit: 10.000000;fill: none;"></path>
  <path d="M148.818634 496.212418C197.665161 487.937088,244.678589 471.146591,287.716171 446.606201C328.834763 423.160034,365.725296 392.977020,396.849670 357.315643" style="stroke:rgb(100.000000%,0.000000%,0.000000%); stroke-width: 2.000000;stroke-linecap: round;stroke-linejoin: bevel;stroke-miterlimit: 10.000000;fill: none;"></path>
  <path d="M148.818634 496.212418C198.161102 489.919235,245.550507 472.994461,287.716171 446.606201C331.888672 418.962021,369.205185 381.645767,396.849670 337.473465" style="stroke:rgb(100.000000%,0.000000%,0.000000%); stroke-width: 2.000000;stroke-linecap: round;stroke-linejoin: bevel;stroke-miterlimit: 10.000000;fill: none;"></path>
  <path d="M148.818634 496.212418C198.486877 491.324860,246.188889 474.288452,287.716171 446.606201C335.510757 414.746155,373.339478 370.039841,396.849670 317.631287" style="stroke:rgb(100.000000%,0.000000%,0.000000%); stroke-width: 2.000000;stroke-linecap: round;stroke-linejoin: bevel;stroke-miterlimit: 10.000000;fill: none;"></path>
  <path d="M148.818634 496.212418C198.695770 492.278183,246.631180 475.158417,287.716171 446.606201C339.637268 410.523376,378.041260 358.154770,396.849670 297.789108" style="stroke:rgb(100.000000%,0.000000%,0.000000%); stroke-width: 2.000000;stroke-linecap: round;stroke-linejoin: bevel;stroke-miterlimit: 10.000000;fill: none;"></path>
  <path d="M148.818634 496.212418C198.824448 492.888535,246.918259 475.712189,287.716171 446.606201C344.210083 406.302399,383.232864 345.995010,396.849670 277.946930" style="stroke:rgb(100.000000%,0.000000%,0.000000%); stroke-width: 2.000000;stroke-linecap: round;stroke-linejoin: bevel;stroke-miterlimit: 10.000000;fill: none;"></path>
  <path d="M148.818634 496.212418C198.897614 493.244202,247.086945 476.033752,287.716171 446.606201C349.177536 402.090027,388.846878 333.570938,396.849670 258.104752" style="stroke:rgb(100.000000%,0.000000%,0.000000%); stroke-width: 2.000000;stroke-linecap: round;stroke-linejoin: bevel;stroke-miterlimit: 10.000000;fill: none;"></path>
  <path d="M148.818634 496.212418C198.931946 493.413345,247.167526 476.186371,287.716171 446.606201C354.494446 397.891556,394.825638 320.896454,396.849670 238.262573" style="stroke:rgb(100.000000%,0.000000%,0.000000%); stroke-width: 2.000000;stroke-linecap: round;stroke-linejoin: bevel;stroke-miterlimit: 10.000000;fill: none;"></path>
  <path d="M148.818634 496.212418C198.938797 493.447266,247.183701 476.216949,287.716171 446.606201C360.121490 393.710938,401.120270 307.987137,396.849670 218.420395" style="stroke:rgb(100.000000%,0.000000%,0.000000%); stroke-width: 2.000000;stroke-linecap: round;stroke-linejoin: bevel;stroke-miterlimit: 10.000000;fill: none;"></path>
  <path d="M148.818634 496.212418C198.926025 493.384048,247.153549 476.159958,287.716171 446.606201C366.024628 389.550995,407.689514 294.859100,396.849670 198.578217" style="stroke:rgb(100.000000%,0.000000%,0.000000%); stroke-width: 2.000000;stroke-linecap: round;stroke-linejoin: bevel;stroke-miterlimit: 10.000000;fill: none;"></path>
  <path d="M148.818634 496.212418C198.899185 493.251862,247.090576 476.040649,287.716171 446.606201C372.174362 385.413712,414.498566 281.528168,396.849670 178.736038" style="stroke:rgb(100.000000%,0.000000%,0.000000%); stroke-width: 2.000000;stroke-linecap: round;stroke-linejoin: bevel;stroke-miterlimit: 10.000000;fill: none;"></path>
  <path d="M148.818634 496.212418C198.862228 493.071365,247.004837 475.877594,287.716171 446.606201C378.545120 381.300308,421.517960 268.009537,396.849670 158.893860" style="stroke:rgb(100.000000%,0.000000%,0.000000%); stroke-width: 2.000000;stroke-linecap: round;stroke-linejoin: bevel;stroke-miterlimit: 10.000000;fill: none;"></path>
  <path d="M148.818634 496.212418C198.818054 492.857803,246.903732 475.684372,287.716171 446.606201C385.114655 377.211456,428.722687 254.317490,396.849670 139.051682" style="stroke:rgb(100.000000%,0.000000%,0.000000%); stroke-width: 2.000000;stroke-linecap: round;stroke-linejoin: bevel;stroke-miterlimit: 10.000000;fill: none;"></path>
  <path d="M148.818634 496.212418C198.768814 492.622345,246.792664 475.470978,287.716171 446.606201C391.863541 373.147400,436.091446 240.465240,396.849670 119.209503" style="stroke:rgb(100.000000%,0.000000%,0.000000%); stroke-width: 2.000000;stroke-linecap: round;stroke-linejoin: bevel;stroke-miterlimit: 10.000000;fill: none;"></path>
  <path d="M148.818634 496.212418C198.716064 492.373199,246.675659 475.244797,287.716171 446.606201C398.774826 369.108063,443.606018 226.465042,396.849670 99.367325" style="stroke:rgb(100.000000%,0.000000%,0.000000%); stroke-width: 2.000000;stroke-linecap: round;stroke-linejoin: bevel;stroke-miterlimit: 10.000000;fill: none;"></path>
  <path d="M148.818634 496.212418C198.660995 492.116409,246.555588 475.011215,287.716171 446.606201C405.833557 365.093124,451.250732 212.328094,396.849670 79.525146" style="stroke:rgb(100.000000%,0.000000%,0.000000%); stroke-width: 2.000000;stroke-linecap: round;stroke-linejoin: bevel;stroke-miterlimit: 10.000000;fill: none;"></path>
  <path d="M148.818634 496.212418C198.604538 491.856384,246.434555 474.774246,287.716171 446.606201C413.026581 361.102081,459.012039 198.064667,396.849670 59.682968" style="stroke:rgb(100.000000%,0.000000%,0.000000%); stroke-width: 2.000000;stroke-linecap: round;stroke-linejoin: bevel;stroke-miterlimit: 10.000000;fill: none;"></path>
  <path d="M148.818634 496.212418C198.547348 491.596313,246.314056 474.536804,287.716171 446.606201C420.342270 357.134308,466.878250 183.684113,396.849670 39.840790" style="stroke:rgb(100.000000%,0.000000%,0.000000%); stroke-width: 2.000000;stroke-linecap: round;stroke-linejoin: bevel;stroke-miterlimit: 10.000000;fill: none;"></path>
  <path d="M148.818634 496.212418C198.489944 491.338562,246.195190 474.300995,287.716171 446.606201C427.770279 353.189117,474.839111 169.194962,396.849670 19.998611" style="stroke:rgb(100.000000%,0.000000%,0.000000%); stroke-width: 2.000000;stroke-linecap: round;stroke-linejoin: bevel;stroke-miterlimit: 10.000000;fill: none;"></path>
  <path d="M148.818634 496.212418C198.432739 491.084793,246.078690 474.068390,287.716171 446.606201C435.301392 349.265701,482.885681 154.605042,396.849670 0.156433" style="stroke:rgb(100.000000%,0.000000%,0.000000%); stroke-width: 2.000000;stroke-linecap: round;stroke-linejoin: bevel;stroke-miterlimit: 10.000000;fill: none;"></path>
</svg>
