<?xml version="1.0"?>
<!-- Created by MetaPost 1.9991 on 2018.02.01:1517 -->
<svg version="1.1" xmlns="http://www.w3.org/2000/svg" xmlns:xlink="http://www.w3.org/1999/xlink" width="498.062088" height="695.486923" viewBox="0 0 498.062088 695.486923">
<!-- Original BoundingBox: -1.500000 -198.924835 496.562088 496.562088 -->
  <path d="M249.500000 496.000000L252.500000 496.000000L252.500000 246.000000L249.500000 246.000000Z" style="fill: rgb(100.000000%,0.000000%,0.000000%);stroke: none;"></path>
  <path d="M249.500000 246.000000L252.500000 246.000000L352.500000 46.000000L349.500000 46.000000Z" style="fill: rgb(100.000000%,0.000000%,0.000000%);stroke: none;"></path>
  <path d="M249.500000 246.000000L252.500000 246.000000L152.500000 46.000000L149.500000 46.000000Z" style="fill: rgb(100.000000%,0.000000%,0.000000%);stroke: none;"></path>
  <path d="M251.000000 496.000000L261.000000 476.000000" style="stroke:rgb(0.000000%,100.000000%,0.000000%); stroke-width: 7.000000;stroke-miterlimit: 10.000000;fill: none;"></path>
  <path d="M261.000000 476.000000L261.000000 241.000000" style="stroke:rgb(0.000000%,0.000000%,0.000000%); stroke-width: 7.000000;stroke-miterlimit: 10.000000;fill: none;"></path>
  <path d="M261.000000 241.000000L371.000000 26.000000" style="stroke:rgb(0.000000%,0.000000%,0.000000%); stroke-width: 7.000000;stroke-miterlimit: 10.000000;fill: none;"></path>
  <path d="M351.000000 46.000000L371.000000 26.000000" style="stroke:rgb(0.000000%,100.000000%,0.000000%); stroke-width: 7.000000;stroke-miterlimit: 10.000000;fill: none;"></path>
  <path d="M151.000000 46.000000C146.412033 39.622604,147.742828 30.750626,154.000000 26.000000C159.024628 22.185165,165.975372 22.185165,171.000000 26.000000" style="stroke:rgb(0.000000%,100.000000%,0.000000%); stroke-width: 7.000000;stroke-miterlimit: 10.000000;fill: none;"></path>
  <path d="M171.000000 26.000000L256.000000 206.000000" style="stroke:rgb(0.000000%,0.000000%,0.000000%); stroke-width: 7.000000;stroke-miterlimit: 10.000000;fill: none;"></path>
  <path d="M1.000000 694.424835L1.000000 -0.062088" style="stroke:rgb(0.000000%,0.000000%,25.000000%); stroke-width: 1.000000;stroke-miterlimit: 10.000000;fill: none;"></path>
  <path d="M100.212418 694.424835L100.212418 -0.062088" style="stroke:rgb(0.000000%,0.000000%,25.000000%); stroke-width: 1.000000;stroke-miterlimit: 10.000000;fill: none;"></path>
  <path d="M199.424835 694.424835L199.424835 -0.062088" style="stroke:rgb(0.000000%,0.000000%,25.000000%); stroke-width: 1.000000;stroke-miterlimit: 10.000000;fill: none;"></path>
  <path d="M298.637253 694.424835L298.637253 -0.062088" style="stroke:rgb(0.000000%,0.000000%,25.000000%); stroke-width: 1.000000;stroke-miterlimit: 10.000000;fill: none;"></path>
  <path d="M397.849670 694.424835L397.849670 -0.062088" style="stroke:rgb(0.000000%,0.000000%,25.000000%); stroke-width: 1.000000;stroke-miterlimit: 10.000000;fill: none;"></path>
  <path d="M497.062088 694.424835L497.062088 -0.062088" style="stroke:rgb(0.000000%,0.000000%,25.000000%); stroke-width: 1.000000;stroke-miterlimit: 10.000000;fill: none;"></path>
  <path d="M1.000000 694.424835L497.062088 694.424835" style="stroke:rgb(0.000000%,0.000000%,25.000000%); stroke-width: 1.000000;stroke-miterlimit: 10.000000;fill: none;"></path>
  <path d="M1.000000 595.212418L497.062088 595.212418" style="stroke:rgb(0.000000%,0.000000%,25.000000%); stroke-width: 1.000000;stroke-miterlimit: 10.000000;fill: none;"></path>
  <path d="M1.000000 496.000000L497.062088 496.000000" style="stroke:rgb(0.000000%,0.000000%,25.000000%); stroke-width: 1.000000;stroke-miterlimit: 10.000000;fill: none;"></path>
  <path d="M1.000000 396.787582L497.062088 396.787582" style="stroke:rgb(0.000000%,0.000000%,25.000000%); stroke-width: 1.000000;stroke-miterlimit: 10.000000;fill: none;"></path>
  <path d="M1.000000 297.575165L497.062088 297.575165" style="stroke:rgb(0.000000%,0.000000%,25.000000%); stroke-width: 1.000000;stroke-miterlimit: 10.000000;fill: none;"></path>
  <path d="M1.000000 198.362747L497.062088 198.362747" style="stroke:rgb(0.000000%,0.000000%,25.000000%); stroke-width: 1.000000;stroke-miterlimit: 10.000000;fill: none;"></path>
  <path d="M1.000000 99.150330L497.062088 99.150330" style="stroke:rgb(0.000000%,0.000000%,25.000000%); stroke-width: 1.000000;stroke-miterlimit: 10.000000;fill: none;"></path>
  <path d="M1.000000 -0.062088L497.062088 -0.062088" style="stroke:rgb(0.000000%,0.000000%,25.000000%); stroke-width: 1.000000;stroke-miterlimit: 10.000000;fill: none;"></path>
  <path d="M1.000000 694.424835L497.062088 694.424835" style="stroke:rgb(100.000000%,0.000000%,0.000000%); stroke-width: 1.000000;stroke-miterlimit: 10.000000;fill: none;"></path>
  <path d="M1.000000 496.000000L497.062088 496.000000" style="stroke:rgb(100.000000%,0.000000%,0.000000%); stroke-width: 1.000000;stroke-miterlimit: 10.000000;fill: none;"></path>
  <path d="M1.000000 198.362747L497.062088 198.362747" style="stroke:rgb(100.000000%,0.000000%,0.000000%); stroke-width: 1.000000;stroke-miterlimit: 10.000000;fill: none;"></path>
  <path d="M1.000000 -0.062088L497.062088 -0.062088" style="stroke:rgb(100.000000%,0.000000%,0.000000%); stroke-width: 1.000000;stroke-miterlimit: 10.000000;fill: none;"></path>
  <g transform="translate(248.509323 493.000000)" style="fill: rgb(0.000000%,0.000000%,0.000000%);">
    <text font-size="9.962646">1</text>
  </g>
  <path d="M251.000000 496.000000l0 0" style="stroke:rgb(0.000000%,0.000000%,0.000000%); stroke-width: 3.000000;stroke-linecap: round;stroke-miterlimit: 10.000000;fill: none;"></path>
  <g transform="translate(248.509323 243.000000)" style="fill: rgb(0.000000%,0.000000%,0.000000%);">
    <text font-size="9.962646">2</text>
  </g>
  <path d="M251.000000 246.000000l0 0" style="stroke:rgb(0.000000%,0.000000%,0.000000%); stroke-width: 3.000000;stroke-linecap: round;stroke-miterlimit: 10.000000;fill: none;"></path>
  <g transform="translate(348.509323 43.000000)" style="fill: rgb(0.000000%,0.000000%,0.000000%);">
    <text font-size="9.962646">3</text>
  </g>
  <path d="M351.000000 46.000000l0 0" style="stroke:rgb(0.000000%,0.000000%,0.000000%); stroke-width: 3.000000;stroke-linecap: round;stroke-miterlimit: 10.000000;fill: none;"></path>
  <g transform="translate(148.509323 43.000000)" style="fill: rgb(0.000000%,0.000000%,0.000000%);">
    <text font-size="9.962646">4</text>
  </g>
  <path d="M151.000000 46.000000l0 0" style="stroke:rgb(0.000000%,0.000000%,0.000000%); stroke-width: 3.000000;stroke-linecap: round;stroke-miterlimit: 10.000000;fill: none;"></path>
  <g transform="translate(258.509323 473.000000)" style="fill: rgb(0.000000%,0.000000%,0.000000%);">
    <text font-size="9.962646">5</text>
  </g>
  <path d="M261.000000 476.000000l0 0" style="stroke:rgb(0.000000%,0.000000%,0.000000%); stroke-width: 3.000000;stroke-linecap: round;stroke-miterlimit: 10.000000;fill: none;"></path>
  <g transform="translate(258.509323 238.000000)" style="fill: rgb(0.000000%,0.000000%,0.000000%);">
    <text font-size="9.962646">6</text>
  </g>
  <path d="M261.000000 241.000000l0 0" style="stroke:rgb(0.000000%,0.000000%,0.000000%); stroke-width: 3.000000;stroke-linecap: round;stroke-miterlimit: 10.000000;fill: none;"></path>
  <g transform="translate(368.509323 23.000000)" style="fill: rgb(0.000000%,0.000000%,0.000000%);">
    <text font-size="9.962646">7</text>
  </g>
  <path d="M371.000000 26.000000l0 0" style="stroke:rgb(0.000000%,0.000000%,0.000000%); stroke-width: 3.000000;stroke-linecap: round;stroke-miterlimit: 10.000000;fill: none;"></path>
  <g transform="translate(168.509323 23.000000)" style="fill: rgb(0.000000%,0.000000%,0.000000%);">
    <text font-size="9.962646">8</text>
  </g>
  <path d="M171.000000 26.000000l0 0" style="stroke:rgb(0.000000%,0.000000%,0.000000%); stroke-width: 3.000000;stroke-linecap: round;stroke-miterlimit: 10.000000;fill: none;"></path>
  <g transform="translate(151.509323 23.000000)" style="fill: rgb(0.000000%,0.000000%,0.000000%);">
    <text font-size="9.962646">9</text>
  </g>
  <path d="M154.000000 26.000000l0 0" style="stroke:rgb(0.000000%,0.000000%,0.000000%); stroke-width: 3.000000;stroke-linecap: round;stroke-miterlimit: 10.000000;fill: none;"></path>
  <g transform="translate(251.018661 203.000000)" style="fill: rgb(0.000000%,0.000000%,0.000000%);">
    <text font-size="9.962646">10</text>
  </g>
  <path d="M256.000000 206.000000l0 0" style="stroke:rgb(0.000000%,0.000000%,0.000000%); stroke-width: 3.000000;stroke-linecap: round;stroke-miterlimit: 10.000000;fill: none;"></path>
  <g transform="translate(1.000000 496.000000)" style="fill: rgb(0.000000%,0.000000%,0.000000%);">
    <text font-size="9.962646">11</text>
  </g>
  <path d="M1.000000 496.000000l0 0" style="stroke:rgb(0.000000%,0.000000%,0.000000%); stroke-width: 3.000000;stroke-linecap: round;stroke-miterlimit: 10.000000;fill: none;"></path>
  <g transform="translate(1.000000 496.000000)" style="fill: rgb(0.000000%,0.000000%,0.000000%);">
    <text font-size="9.962646">12</text>
  </g>
  <path d="M1.000000 496.000000l0 0" style="stroke:rgb(0.000000%,0.000000%,0.000000%); stroke-width: 3.000000;stroke-linecap: round;stroke-miterlimit: 10.000000;fill: none;"></path>
</svg>
