<?xml version="1.0"?>
<!-- Created by MetaPost 1.9991 on 2018.02.01:1517 -->
<svg version="1.1" xmlns="http://www.w3.org/2000/svg" xmlns:xlink="http://www.w3.org/1999/xlink" width="497.062088" height="893.661758" viewBox="0 0 497.062088 893.661758">
<!-- Original BoundingBox: -0.500000 -198.924835 496.562088 694.736923 -->
  <path d="M0.000000 892.424835L0.000000 197.937912" style="stroke:rgb(0.000000%,0.000000%,25.000000%); stroke-width: 0.500000;stroke-miterlimit: 10.000000;fill: none;"></path>
  <path d="M99.212418 892.424835L99.212418 197.937912" style="stroke:rgb(0.000000%,0.000000%,25.000000%); stroke-width: 0.500000;stroke-miterlimit: 10.000000;fill: none;"></path>
  <path d="M198.424835 892.424835L198.424835 197.937912" style="stroke:rgb(0.000000%,0.000000%,25.000000%); stroke-width: 0.500000;stroke-miterlimit: 10.000000;fill: none;"></path>
  <path d="M297.637253 892.424835L297.637253 197.937912" style="stroke:rgb(0.000000%,0.000000%,25.000000%); stroke-width: 0.500000;stroke-miterlimit: 10.000000;fill: none;"></path>
  <path d="M396.849670 892.424835L396.849670 197.937912" style="stroke:rgb(0.000000%,0.000000%,25.000000%); stroke-width: 0.500000;stroke-miterlimit: 10.000000;fill: none;"></path>
  <path d="M496.062088 892.424835L496.062088 197.937912" style="stroke:rgb(0.000000%,0.000000%,25.000000%); stroke-width: 0.500000;stroke-miterlimit: 10.000000;fill: none;"></path>
  <path d="M0.000000 892.424835L496.062088 892.424835" style="stroke:rgb(0.000000%,0.000000%,25.000000%); stroke-width: 0.500000;stroke-miterlimit: 10.000000;fill: none;"></path>
  <path d="M0.000000 793.212418L496.062088 793.212418" style="stroke:rgb(0.000000%,0.000000%,25.000000%); stroke-width: 0.500000;stroke-miterlimit: 10.000000;fill: none;"></path>
  <path d="M0.000000 694.000000L496.062088 694.000000" style="stroke:rgb(0.000000%,0.000000%,25.000000%); stroke-width: 0.500000;stroke-miterlimit: 10.000000;fill: none;"></path>
  <path d="M0.000000 594.787582L496.062088 594.787582" style="stroke:rgb(0.000000%,0.000000%,25.000000%); stroke-width: 0.500000;stroke-miterlimit: 10.000000;fill: none;"></path>
  <path d="M0.000000 495.575165L496.062088 495.575165" style="stroke:rgb(0.000000%,0.000000%,25.000000%); stroke-width: 0.500000;stroke-miterlimit: 10.000000;fill: none;"></path>
  <path d="M0.000000 396.362747L496.062088 396.362747" style="stroke:rgb(0.000000%,0.000000%,25.000000%); stroke-width: 0.500000;stroke-miterlimit: 10.000000;fill: none;"></path>
  <path d="M0.000000 297.150330L496.062088 297.150330" style="stroke:rgb(0.000000%,0.000000%,25.000000%); stroke-width: 0.500000;stroke-miterlimit: 10.000000;fill: none;"></path>
  <path d="M0.000000 197.937912L496.062088 197.937912" style="stroke:rgb(0.000000%,0.000000%,25.000000%); stroke-width: 0.500000;stroke-miterlimit: 10.000000;fill: none;"></path>
  <path d="M0.000000 892.424835L496.062088 892.424835" style="stroke:rgb(100.000000%,0.000000%,0.000000%); stroke-width: 1.000000;stroke-miterlimit: 10.000000;fill: none;"></path>
  <path d="M0.000000 694.000000L496.062088 694.000000" style="stroke:rgb(100.000000%,0.000000%,0.000000%); stroke-width: 1.000000;stroke-miterlimit: 10.000000;fill: none;"></path>
  <path d="M0.000000 396.362747L496.062088 396.362747" style="stroke:rgb(100.000000%,0.000000%,0.000000%); stroke-width: 1.000000;stroke-miterlimit: 10.000000;fill: none;"></path>
  <path d="M0.000000 197.937912L496.062088 197.937912" style="stroke:rgb(100.000000%,0.000000%,0.000000%); stroke-width: 1.000000;stroke-miterlimit: 10.000000;fill: none;"></path>
  <g transform="translate(295.146576 691.000000)" style="fill: rgb(0.000000%,0.000000%,0.000000%);">
    <text font-size="9.962646">1</text>
  </g>
  <path d="M297.637253 694.000000l0 0" style="stroke:rgb(0.000000%,0.000000%,0.000000%); stroke-width: 3.000000;stroke-linecap: round;stroke-miterlimit: 10.000000;fill: none;"></path>
  <g transform="translate(195.934158 591.787582)" style="fill: rgb(0.000000%,0.000000%,0.000000%);">
    <text font-size="9.962646">2</text>
  </g>
  <path d="M198.424835 594.787582l0 0" style="stroke:rgb(0.000000%,0.000000%,0.000000%); stroke-width: 3.000000;stroke-linecap: round;stroke-miterlimit: 10.000000;fill: none;"></path>
  <g transform="translate(295.146576 492.575165)" style="fill: rgb(0.000000%,0.000000%,0.000000%);">
    <text font-size="9.962646">3</text>
  </g>
  <path d="M297.637253 495.575165l0 0" style="stroke:rgb(0.000000%,0.000000%,0.000000%); stroke-width: 3.000000;stroke-linecap: round;stroke-miterlimit: 10.000000;fill: none;"></path>
  <path d="M297.637253 694.000000C242.843750 694.000000,198.424835 649.581085,198.424835 594.787582C198.424835 539.994080,242.843750 495.575165,297.637253 495.575165" style="stroke:rgb(0.000000%,100.000000%,0.000000%); stroke-width: 0.500000;stroke-miterlimit: 10.000000;fill: none;"></path>
  <path d="M297.637253 694.000000C250.257492 679.266571,213.158264 642.167343,198.424835 594.787582C172.911163 512.740723,216.691559 425.179916,297.637253 396.362747" style="stroke:rgb(0.000000%,100.000000%,0.000000%); stroke-width: 0.500000;stroke-miterlimit: 10.000000;fill: none;"></path>
  <path d="M297.637253 694.000000C254.127274 673.342255,219.082581 638.297562,198.424835 594.787582C146.310974 485.023819,190.087906 353.693024,297.637253 297.150330" style="stroke:rgb(0.000000%,100.000000%,0.000000%); stroke-width: 0.500000;stroke-miterlimit: 10.000000;fill: none;"></path>
  <path d="M297.637253 694.000000C256.392349 670.261734,222.163101 636.032486,198.424835 594.787582C119.327927 457.357849,163.173050 281.977371,297.637253 197.937912" style="stroke:rgb(0.000000%,100.000000%,0.000000%); stroke-width: 0.500000;stroke-miterlimit: 10.000000;fill: none;"></path>
  <path d="M297.637253 694.000000C257.861816 668.392548,224.032288 634.563019,198.424835 594.787582C92.179810 429.759796,136.092697 210.195358,297.637253 98.725494" style="stroke:rgb(0.000000%,100.000000%,0.000000%); stroke-width: 0.500000;stroke-miterlimit: 10.000000;fill: none;"></path>
  <path d="M297.637253 694.000000C258.887863 667.142288,225.282547 633.536972,198.424835 594.787582C64.947693 402.211365,108.917938 138.389877,297.637253 -0.486923" style="stroke:rgb(0.000000%,100.000000%,0.000000%); stroke-width: 0.500000;stroke-miterlimit: 10.000000;fill: none;"></path>
  <path d="M297.637253 694.000000C297.637253 644.686172,257.660507 604.709427,208.346680 604.709427C202.866989 604.709427,198.424835 600.267273,198.424835 594.787582" style="stroke:rgb(100.000000%,0.000000%,0.000000%); stroke-width: 0.500000;stroke-miterlimit: 10.000000;fill: none;"></path>
  <path d="M297.637253 694.000000C297.637253 644.686172,257.660507 604.709427,208.346680 604.709427C188.503998 604.709427,188.503998 574.945404,208.346680 574.945404" style="stroke:rgb(100.000000%,0.000000%,0.000000%); stroke-width: 0.500000;stroke-miterlimit: 10.000000;fill: none;"></path>
  <path d="M297.637253 694.000000C297.637253 644.686172,257.660507 604.709427,208.346680 604.709427C166.392502 604.709427,179.541977 538.966095,218.268524 555.103226" style="stroke:rgb(100.000000%,0.000000%,0.000000%); stroke-width: 0.500000;stroke-miterlimit: 10.000000;fill: none;"></path>
  <path d="M297.637253 694.000000C297.637253 644.686172,257.660507 604.709427,208.346680 604.709427C141.954361 604.709427,171.820740 500.183914,228.190369 535.261047" style="stroke:rgb(100.000000%,0.000000%,0.000000%); stroke-width: 0.500000;stroke-miterlimit: 10.000000;fill: none;"></path>
  <path d="M297.637253 694.000000C297.637253 644.686172,257.660507 604.709427,208.346680 604.709427C116.577545 604.709427,164.699127 460.354401,238.112213 515.418869" style="stroke:rgb(100.000000%,0.000000%,0.000000%); stroke-width: 0.500000;stroke-miterlimit: 10.000000;fill: none;"></path>
  <path d="M297.637253 694.000000C297.637253 644.686172,257.660507 604.709427,208.346680 604.709427C90.734253 604.709427,157.896515 420.026016,248.034058 495.576691" style="stroke:rgb(100.000000%,0.000000%,0.000000%); stroke-width: 0.500000;stroke-miterlimit: 10.000000;fill: none;"></path>
  <path d="M297.637253 694.000000C297.637253 644.686172,257.660507 604.709427,208.346680 604.709427C64.626373 604.709427,151.281464 379.422089,257.955902 475.734512" style="stroke:rgb(100.000000%,0.000000%,0.000000%); stroke-width: 0.500000;stroke-miterlimit: 10.000000;fill: none;"></path>
  <path d="M297.637253 694.000000C297.637253 644.686172,257.660507 604.709427,208.346680 604.709427C38.354202 604.709427,144.785492 338.650131,267.877747 455.892334" style="stroke:rgb(100.000000%,0.000000%,0.000000%); stroke-width: 0.500000;stroke-miterlimit: 10.000000;fill: none;"></path>
  <path d="M297.637253 694.000000C297.637253 644.686172,257.660507 604.709427,208.346680 604.709427C11.973083 604.709427,138.369690 297.768219,277.799591 436.050156" style="stroke:rgb(100.000000%,0.000000%,0.000000%); stroke-width: 0.500000;stroke-miterlimit: 10.000000;fill: none;"></path>
  <path d="M297.637253 694.000000C297.637253 644.686172,257.660507 604.709427,208.346680 604.709427C-14.483978 604.709427,132.010361 256.810486,287.721436 416.207977" style="stroke:rgb(100.000000%,0.000000%,0.000000%); stroke-width: 0.500000;stroke-miterlimit: 10.000000;fill: none;"></path>
</svg>
