<?xml version="1.0"?>
<!-- Created by MetaPost 1.9991 on 2018.02.01:0935 -->
<svg version="1.1" xmlns="http://www.w3.org/2000/svg" xmlns:xlink="http://www.w3.org/1999/xlink" width="497.062088" height="695.486923" viewBox="0 0 497.062088 695.486923">
<!-- Original BoundingBox: -0.500000 -198.924835 496.562088 496.562088 -->
  <path d="M0.000000 694.424835L0.000000 -0.062088" style="stroke:rgb(0.000000%,0.000000%,25.000000%); stroke-width: 0.500000;stroke-linecap: round;stroke-linejoin: round;stroke-miterlimit: 10.000000;fill: none;"></path>
  <path d="M99.212418 694.424835L99.212418 -0.062088" style="stroke:rgb(0.000000%,0.000000%,25.000000%); stroke-width: 0.500000;stroke-linecap: round;stroke-linejoin: round;stroke-miterlimit: 10.000000;fill: none;"></path>
  <path d="M198.424835 694.424835L198.424835 -0.062088" style="stroke:rgb(0.000000%,0.000000%,25.000000%); stroke-width: 0.500000;stroke-linecap: round;stroke-linejoin: round;stroke-miterlimit: 10.000000;fill: none;"></path>
  <path d="M297.637253 694.424835L297.637253 -0.062088" style="stroke:rgb(0.000000%,0.000000%,25.000000%); stroke-width: 0.500000;stroke-linecap: round;stroke-linejoin: round;stroke-miterlimit: 10.000000;fill: none;"></path>
  <path d="M396.849670 694.424835L396.849670 -0.062088" style="stroke:rgb(0.000000%,0.000000%,25.000000%); stroke-width: 0.500000;stroke-linecap: round;stroke-linejoin: round;stroke-miterlimit: 10.000000;fill: none;"></path>
  <path d="M496.062088 694.424835L496.062088 -0.062088" style="stroke:rgb(0.000000%,0.000000%,25.000000%); stroke-width: 0.500000;stroke-linecap: round;stroke-linejoin: round;stroke-miterlimit: 10.000000;fill: none;"></path>
  <path d="M0.000000 694.424835L496.062088 694.424835" style="stroke:rgb(0.000000%,0.000000%,25.000000%); stroke-width: 0.500000;stroke-linecap: round;stroke-linejoin: round;stroke-miterlimit: 10.000000;fill: none;"></path>
  <path d="M0.000000 595.212418L496.062088 595.212418" style="stroke:rgb(0.000000%,0.000000%,25.000000%); stroke-width: 0.500000;stroke-linecap: round;stroke-linejoin: round;stroke-miterlimit: 10.000000;fill: none;"></path>
  <path d="M0.000000 496.000000L496.062088 496.000000" style="stroke:rgb(0.000000%,0.000000%,25.000000%); stroke-width: 0.500000;stroke-linecap: round;stroke-linejoin: round;stroke-miterlimit: 10.000000;fill: none;"></path>
  <path d="M0.000000 396.787582L496.062088 396.787582" style="stroke:rgb(0.000000%,0.000000%,25.000000%); stroke-width: 0.500000;stroke-linecap: round;stroke-linejoin: round;stroke-miterlimit: 10.000000;fill: none;"></path>
  <path d="M0.000000 297.575165L496.062088 297.575165" style="stroke:rgb(0.000000%,0.000000%,25.000000%); stroke-width: 0.500000;stroke-linecap: round;stroke-linejoin: round;stroke-miterlimit: 10.000000;fill: none;"></path>
  <path d="M0.000000 198.362747L496.062088 198.362747" style="stroke:rgb(0.000000%,0.000000%,25.000000%); stroke-width: 0.500000;stroke-linecap: round;stroke-linejoin: round;stroke-miterlimit: 10.000000;fill: none;"></path>
  <path d="M0.000000 99.150330L496.062088 99.150330" style="stroke:rgb(0.000000%,0.000000%,25.000000%); stroke-width: 0.500000;stroke-linecap: round;stroke-linejoin: round;stroke-miterlimit: 10.000000;fill: none;"></path>
  <path d="M0.000000 -0.062088L496.062088 -0.062088" style="stroke:rgb(0.000000%,0.000000%,25.000000%); stroke-width: 0.500000;stroke-linecap: round;stroke-linejoin: round;stroke-miterlimit: 10.000000;fill: none;"></path>
  <path d="M0.000000 694.424835L496.062088 694.424835" style="stroke:rgb(100.000000%,0.000000%,0.000000%); stroke-width: 1.000000;stroke-linecap: round;stroke-linejoin: round;stroke-miterlimit: 10.000000;fill: none;"></path>
  <path d="M0.000000 496.000000L496.062088 496.000000" style="stroke:rgb(100.000000%,0.000000%,0.000000%); stroke-width: 1.000000;stroke-linecap: round;stroke-linejoin: round;stroke-miterlimit: 10.000000;fill: none;"></path>
  <path d="M0.000000 198.362747L496.062088 198.362747" style="stroke:rgb(100.000000%,0.000000%,0.000000%); stroke-width: 1.000000;stroke-linecap: round;stroke-linejoin: round;stroke-miterlimit: 10.000000;fill: none;"></path>
  <path d="M0.000000 -0.062088L496.062088 -0.062088" style="stroke:rgb(100.000000%,0.000000%,0.000000%); stroke-width: 1.000000;stroke-linecap: round;stroke-linejoin: round;stroke-miterlimit: 10.000000;fill: none;"></path>
</svg>
