<?xml version="1.0"?>
<!-- Created by MetaPost 1.9991 on 2018.02.01:0815 -->
<svg version="1.1" xmlns="http://www.w3.org/2000/svg" xmlns:xlink="http://www.w3.org/1999/xlink" width="104.000000" height="104.000000" viewBox="0 0 104.000000 104.000000">
<!-- Original BoundingBox: -2.000000 -2.000000 102.000000 102.000000 -->
  <path d="M2.000000 102.000000L102.000000 102.000000" style="stroke:rgb(0.000000%,0.000000%,0.000000%); stroke-width: 4.000000;stroke-linecap: round;stroke-linejoin: round;stroke-miterlimit: 10.000000;fill: none;"></path>
  <path d="M2.000000 102.000000L2.000000 2.000000" style="stroke:rgb(0.000000%,0.000000%,0.000000%); stroke-width: 4.000000;stroke-linecap: round;stroke-linejoin: round;stroke-miterlimit: 10.000000;fill: none;"></path>
  <path d="M2.000000 2.000000L102.000000 2.000000" style="stroke:rgb(0.000000%,0.000000%,0.000000%); stroke-width: 4.000000;stroke-linecap: round;stroke-linejoin: round;stroke-miterlimit: 10.000000;fill: none;"></path>
  <path d="M2.000000 52.000000L102.000000 52.000000" style="stroke:rgb(0.000000%,0.000000%,0.000000%); stroke-width: 4.000000;stroke-linecap: round;stroke-linejoin: round;stroke-miterlimit: 10.000000;fill: none;"></path>
  <path d="M2.000000 102.000000C2.000000 50.497177,60.797729 21.098297,102.000000 52.000000" style="stroke:rgb(0.000000%,0.000000%,100.000000%); stroke-width: 4.000000;stroke-linecap: round;stroke-linejoin: round;stroke-miterlimit: 10.000000;fill: none;"></path>
  <path d="M2.000000 2.000000C2.000000 53.502823,60.797729 82.901703,102.000000 52.000000" style="stroke:rgb(100.000000%,0.000000%,0.000000%); stroke-width: 4.000000;stroke-linecap: round;stroke-linejoin: round;stroke-miterlimit: 10.000000;fill: none;"></path>
</svg>
