<?xml version="1.0"?>
<!-- Created by MetaPost 1.9991 on 2018.01.31:1941 -->
<svg version="1.1" xmlns="http://www.w3.org/2000/svg" xmlns:xlink="http://www.w3.org/1999/xlink" width="699.550934" height="615.000000" viewBox="0 0 699.550934 615.000000">
<!-- Original BoundingBox: -97.050934 -7.500000 602.500000 607.500000 -->
  <path d="M97.000000 207.000000C-104.489594 207.000000,97.000000 449.474533,97.000000 607.000000C97.000000 449.621353,297.000000 364.378647,297.000000 207.000000C95.510406 207.000000,297.000000 449.474533,297.000000 607.000000C297.000000 449.621353,497.000000 364.378647,497.000000 207.000000C497.000000 -59.666672,97.000000 -59.666672,97.000000 207.000000Z" style="stroke:rgb(0.000000%,0.000000%,100.000000%); stroke-width: 15.000000;stroke-linecap: round;stroke-linejoin: round;stroke-miterlimit: 10.000000;fill: none;"></path>
  <path d="M97.000000 207.000000L97.000000 607.000000L397.000000 207.000000L397.000000 607.000000L697.000000 207.000000" style="stroke:rgb(100.000000%,0.000000%,0.000000%); stroke-width: 5.000000;stroke-linecap: round;stroke-linejoin: round;stroke-miterlimit: 10.000000;fill: none;"></path>
</svg>
